…
``` r
get_states(ucm)
```

    ## # A tibble: 1,240 × 7
    ##      time stage n     replication state cum_state    id
    ##     <dbl> <fct> <chr>       <int> <dbl>     <dbl> <dbl>
    ##  1 0      timer 0               1     0         0     1
    ##  2 0.0447 timer 0               1     1         1     1
    ##  3 0.0491 timer 0               1     2         2     1
    ##  4 0.0492 timer 0               1     3         3     1
    ##  5 0.0803 timer 0               1     4         4     1
    ##  6 0.0872 timer 0               1     5         5     1
    ##  7 0.0888 timer 0               1     6         6     1
    ##  8 0.104  timer 0               1     7         7     1
    ##  9 0.107  timer 0               1     8         8     1
    ## 10 0.122  timer 0               1     9         9     1
    ## # … with 1,230 more rows
…
